%YAML 1.1
%TAG !u! tag:unity3d.com,2011:
--- !u!1 &2524018859733068659
GameObject:
  m_ObjectHideFlags: 0
  m_CorrespondingSourceObject: {fileID: 0}
  m_PrefabInstance: {fileID: 0}
  m_PrefabAsset: {fileID: 0}
  serializedVersion: 6
  m_Component:
  - component: {fileID: 2524018859733068649}
  - component: {fileID: 2524018859733068648}
  - component: {fileID: 2524018859733068663}
  - component: {fileID: 2524018859733068662}
  - component: {fileID: 2524018859733068661}
  - component: {fileID: 2524018859733068660}
  - component: {fileID: 5634302093653907014}
  m_Layer: 0
  m_Name: Dice
  m_TagString: Untagged
  m_Icon: {fileID: 0}
  m_NavMeshLayer: 0
  m_StaticEditorFlags: 0
  m_IsActive: 1
--- !u!4 &2524018859733068649
Transform:
  m_ObjectHideFlags: 0
  m_CorrespondingSourceObject: {fileID: 0}
  m_PrefabInstance: {fileID: 0}
  m_PrefabAsset: {fileID: 0}
  m_GameObject: {fileID: 2524018859733068659}
  m_LocalRotation: {x: 0, y: 0, z: 0, w: 1}
  m_LocalPosition: {x: 0, y: 0.05, z: 0}
  m_LocalScale: {x: 1, y: 1, z: 1}
  m_ConstrainProportionsScale: 0
  m_Children: []
  m_Father: {fileID: 0}
  m_RootOrder: 0
  m_LocalEulerAnglesHint: {x: 0, y: 0, z: 0}
--- !u!114 &2524018859733068648
MonoBehaviour:
  m_ObjectHideFlags: 0
  m_CorrespondingSourceObject: {fileID: 0}
  m_PrefabInstance: {fileID: 0}
  m_PrefabAsset: {fileID: 0}
  m_GameObject: {fileID: 2524018859733068659}
  m_Enabled: 1
  m_EditorHideFlags: 0
  m_Script: {fileID: 11500000, guid: 8233d90336aea43098adf6dbabd606a2, type: 3}
  m_Name: 
  m_EditorClassIdentifier: 
  m_MeshFormatVersion: 2
  m_Faces:
  - m_Indexes: 000000000100000002000000010000000300000002000000
    m_SmoothingGroup: 0
    m_Uv:
      m_UseWorldSpace: 0
      m_FlipU: 0
      m_FlipV: 0
      m_SwapUV: 0
      m_Fill: 1
      m_Scale: {x: 1, y: 1}
      m_Offset: {x: 0, y: 0}
      m_Rotation: 0
      m_Anchor: 9
    m_Material: {fileID: 0}
    m_SubmeshIndex: 0
    m_ManualUV: 1
    elementGroup: -1
    m_TextureGroup: -1
  - m_Indexes: 040000000500000006000000050000000700000006000000
    m_SmoothingGroup: 0
    m_Uv:
      m_UseWorldSpace: 0
      m_FlipU: 0
      m_FlipV: 0
      m_SwapUV: 0
      m_Fill: 1
      m_Scale: {x: 1, y: 1}
      m_Offset: {x: 0, y: 0}
      m_Rotation: 0
      m_Anchor: 9
    m_Material: {fileID: 0}
    m_SubmeshIndex: 0
    m_ManualUV: 1
    elementGroup: -1
    m_TextureGroup: -1
  - m_Indexes: 08000000090000000a000000090000000b0000000a000000
    m_SmoothingGroup: 0
    m_Uv:
      m_UseWorldSpace: 0
      m_FlipU: 0
      m_FlipV: 0
      m_SwapUV: 0
      m_Fill: 1
      m_Scale: {x: 1, y: 1}
      m_Offset: {x: 0, y: 0}
      m_Rotation: 0
      m_Anchor: 9
    m_Material: {fileID: 0}
    m_SubmeshIndex: 0
    m_ManualUV: 1
    elementGroup: -1
    m_TextureGroup: -1
  - m_Indexes: 0c0000000d0000000e0000000d0000000f0000000e000000
    m_SmoothingGroup: 0
    m_Uv:
      m_UseWorldSpace: 0
      m_FlipU: 0
      m_FlipV: 0
      m_SwapUV: 0
      m_Fill: 1
      m_Scale: {x: 1, y: 1}
      m_Offset: {x: 0, y: 0}
      m_Rotation: 0
      m_Anchor: 9
    m_Material: {fileID: 0}
    m_SubmeshIndex: 0
    m_ManualUV: 1
    elementGroup: -1
    m_TextureGroup: -1
  - m_Indexes: 100000001100000012000000110000001300000012000000
    m_SmoothingGroup: 0
    m_Uv:
      m_UseWorldSpace: 0
      m_FlipU: 0
      m_FlipV: 0
      m_SwapUV: 0
      m_Fill: 1
      m_Scale: {x: 1, y: 1}
      m_Offset: {x: 0, y: 0}
      m_Rotation: 0
      m_Anchor: 9
    m_Material: {fileID: 0}
    m_SubmeshIndex: 0
    m_ManualUV: 1
    elementGroup: -1
    m_TextureGroup: -1
  - m_Indexes: 140000001500000016000000150000001700000016000000
    m_SmoothingGroup: 0
    m_Uv:
      m_UseWorldSpace: 0
      m_FlipU: 0
      m_FlipV: 0
      m_SwapUV: 0
      m_Fill: 1
      m_Scale: {x: 1, y: 1}
      m_Offset: {x: 0, y: 0}
      m_Rotation: 0
      m_Anchor: 9
    m_Material: {fileID: 0}
    m_SubmeshIndex: 0
    m_ManualUV: 1
    elementGroup: -1
    m_TextureGroup: -1
  m_SharedVertices:
  - m_Vertices: 000000000d00000016000000
  - m_Vertices: 010000000400000017000000
  - m_Vertices: 020000000f00000010000000
  - m_Vertices: 030000000600000011000000
  - m_Vertices: 050000000800000015000000
  - m_Vertices: 070000000a00000013000000
  - m_Vertices: 090000000c00000014000000
  - m_Vertices: 0b0000000e00000012000000
  m_SharedTextures: []
  m_Positions:
  - {x: -0.025000136, y: -0.025000077, z: 0.024999727}
  - {x: 0.024999859, y: -0.02499998, z: 0.024999727}
  - {x: -0.025000233, y: 0.024999928, z: 0.02499969}
  - {x: 0.024999762, y: 0.025000025, z: 0.02499969}
  - {x: 0.024999859, y: -0.02499998, z: 0.024999727}
  - {x: 0.024999859, y: -0.025000019, z: -0.025000269}
  - {x: 0.024999762, y: 0.025000025, z: 0.02499969}
  - {x: 0.024999762, y: 0.024999987, z: -0.025000308}
  - {x: 0.024999859, y: -0.025000019, z: -0.025000269}
  - {x: -0.025000136, y: -0.025000116, z: -0.025000269}
  - {x: 0.024999762, y: 0.024999987, z: -0.025000308}
  - {x: -0.025000233, y: 0.02499989, z: -0.025000308}
  - {x: -0.025000136, y: -0.025000116, z: -0.025000269}
  - {x: -0.025000136, y: -0.025000077, z: 0.024999727}
  - {x: -0.025000233, y: 0.02499989, z: -0.025000308}
  - {x: -0.025000233, y: 0.024999928, z: 0.02499969}
  - {x: -0.025000233, y: 0.024999928, z: 0.02499969}
  - {x: 0.024999762, y: 0.025000025, z: 0.02499969}
  - {x: -0.025000233, y: 0.02499989, z: -0.025000308}
  - {x: 0.024999762, y: 0.024999987, z: -0.025000308}
  - {x: -0.025000136, y: -0.025000116, z: -0.025000269}
  - {x: 0.024999859, y: -0.025000019, z: -0.025000269}
  - {x: -0.025000136, y: -0.025000077, z: 0.024999727}
  - {x: 0.024999859, y: -0.02499998, z: 0.024999727}
  m_Textures0:
  - {x: 0.07500009, y: 0.025000012}
  - {x: 0.025000094, y: 0.025000012}
  - {x: 0.07500009, y: 0.07500001}
  - {x: 0.025000094, y: 0.07500001}
  - {x: 0.07499975, y: 0.025000012}
  - {x: 0.02499975, y: 0.025000012}
  - {x: 0.07499975, y: 0.07500001}
  - {x: 0.02499975, y: 0.07500001}
  - {x: -0.025000094, y: 0.025000012}
  - {x: -0.07500009, y: 0.025000012}
  - {x: -0.025000094, y: 0.07500001}
  - {x: -0.07500009, y: 0.07500001}
  - {x: -0.02499975, y: 0.025000012}
  - {x: -0.07499975, y: 0.025000012}
  - {x: -0.02499975, y: 0.07500001}
  - {x: -0.07499975, y: 0.07500001}
  - {x: -0.07500009, y: 0.07499975}
  - {x: -0.025000094, y: 0.07499975}
  - {x: -0.07500009, y: 0.02499975}
  - {x: -0.025000094, y: 0.02499975}
  - {x: 0.07500009, y: 0.02499975}
  - {x: 0.025000094, y: 0.02499975}
  - {x: 0.07500009, y: 0.07499975}
  - {x: 0.025000094, y: 0.07499975}
  m_Textures2: []
  m_Textures3: []
  m_Tangents:
  - {x: -1, y: -0.0000019371512, z: 1.0842022e-19, w: -1}
  - {x: -1, y: -0.0000019371512, z: 1.0842022e-19, w: -1}
  - {x: -1, y: -0.0000019371512, z: 1.0842022e-19, w: -1}
  - {x: -1, y: -0.0000019371512, z: 1.0842022e-19, w: -1}
  - {x: 0, y: 0.000000782311, z: 1, w: -1}
  - {x: 0, y: 0.00000076368457, z: 1, w: -1}
  - {x: 0, y: 0.00000076368457, z: 1, w: -1}
  - {x: 2.1684043e-19, y: 0.000000745058, z: 1, w: -1}
  - {x: 1, y: 0.0000019371512, z: -1.0842022e-19, w: -1}
  - {x: 1, y: 0.0000019371512, z: -1.0842022e-19, w: -1}
  - {x: 1, y: 0.0000019371512, z: -1.0842022e-19, w: -1}
  - {x: 1, y: 0.0000019371512, z: -1.0842022e-19, w: -1}
  - {x: 0, y: -0.000000782311, z: -1, w: -1}
  - {x: 0, y: -0.00000076368457, z: -1, w: -1}
  - {x: 0, y: -0.00000076368457, z: -1, w: -1}
  - {x: 0, y: -0.0000007450581, z: -1, w: -1}
  - {x: 1, y: 0.0000019371512, z: 0, w: -1}
  - {x: 1, y: 0.0000019371512, z: 0, w: -1}
  - {x: 1, y: 0.0000019371512, z: 0, w: -1}
  - {x: 1, y: 0.0000019371512, z: 0, w: -1}
  - {x: -1, y: -0.0000019371512, z: 0, w: -1}
  - {x: -1, y: -0.0000019371512, z: 0, w: -1}
  - {x: -1, y: -0.0000019371512, z: 0, w: -1}
  - {x: -1, y: -0.0000019371512, z: 0, w: -1}
  m_Colors:
  - {r: 1, g: 0.052900795, b: 0.036967587, a: 1}
  - {r: 1, g: 0.052900795, b: 0.036967587, a: 1}
  - {r: 1, g: 0.052900795, b: 0.036967587, a: 1}
  - {r: 1, g: 0.052900795, b: 0.036967587, a: 1}
  - {r: 1, g: 0.052900795, b: 0.036967587, a: 1}
  - {r: 1, g: 0.052900795, b: 0.036967587, a: 1}
  - {r: 1, g: 0.052900795, b: 0.036967587, a: 1}
  - {r: 1, g: 0.052900795, b: 0.036967587, a: 1}
  - {r: 1, g: 0.052900795, b: 0.036967587, a: 1}
  - {r: 1, g: 0.052900795, b: 0.036967587, a: 1}
  - {r: 1, g: 0.052900795, b: 0.036967587, a: 1}
  - {r: 1, g: 0.052900795, b: 0.036967587, a: 1}
  - {r: 1, g: 0.052900795, b: 0.036967587, a: 1}
  - {r: 1, g: 0.052900795, b: 0.036967587, a: 1}
  - {r: 1, g: 0.052900795, b: 0.036967587, a: 1}
  - {r: 1, g: 0.052900795, b: 0.036967587, a: 1}
  - {r: 1, g: 0.052900795, b: 0.036967587, a: 1}
  - {r: 1, g: 0.052900795, b: 0.036967587, a: 1}
  - {r: 1, g: 0.052900795, b: 0.036967587, a: 1}
  - {r: 1, g: 0.052900795, b: 0.036967587, a: 1}
  - {r: 1, g: 0.052900795, b: 0.036967587, a: 1}
  - {r: 1, g: 0.052900795, b: 0.036967587, a: 1}
  - {r: 1, g: 0.052900795, b: 0.036967587, a: 1}
  - {r: 1, g: 0.052900795, b: 0.036967587, a: 1}
  m_UnwrapParameters:
    m_HardAngle: 88
    m_PackMargin: 20
    m_AngleError: 8
    m_AreaError: 15
  m_PreserveMeshAssetOnDestroy: 0
  assetGuid: 
  m_Mesh: {fileID: 0}
  m_VersionIndex: 1486
  m_IsSelectable: 1
  m_SelectedFaces: 
  m_SelectedEdges: []
  m_SelectedVertices: 
--- !u!114 &2524018859733068663
MonoBehaviour:
  m_ObjectHideFlags: 0
  m_CorrespondingSourceObject: {fileID: 0}
  m_PrefabInstance: {fileID: 0}
  m_PrefabAsset: {fileID: 0}
  m_GameObject: {fileID: 2524018859733068659}
  m_Enabled: 1
  m_EditorHideFlags: 0
  m_Script: {fileID: 11500000, guid: 1ca002da428252441b92f28d83c8a65f, type: 3}
  m_Name: 
  m_EditorClassIdentifier: 
  m_Shape:
    rid: 4807841732749164545
  m_Size: {x: 0.05, y: 0.05, z: 0.05}
  m_Rotation: {x: 0, y: 0, z: 0, w: 1}
  m_PivotLocation: 1
  m_PivotPosition: {x: 0, y: 0, z: 0}
  m_UnmodifiedMeshVersion: 1471
  m_ShapeBox:
    m_Center: {x: -0.050000094, y: 0.050000012, z: 0.04999975}
    m_Extent: {x: 0.024999999, y: 0.024999999, z: 0.024999999}
  references:
    version: 2
    RefIds:
    - rid: 4807841732749164545
      type: {class: Cube, ns: UnityEngine.ProBuilder.Shapes, asm: Unity.ProBuilder}
--- !u!23 &2524018859733068662
MeshRenderer:
  m_ObjectHideFlags: 0
  m_CorrespondingSourceObject: {fileID: 0}
  m_PrefabInstance: {fileID: 0}
  m_PrefabAsset: {fileID: 0}
  m_GameObject: {fileID: 2524018859733068659}
  m_Enabled: 1
  m_CastShadows: 1
  m_ReceiveShadows: 1
  m_DynamicOccludee: 1
  m_StaticShadowCaster: 0
  m_MotionVectors: 1
  m_LightProbeUsage: 1
  m_ReflectionProbeUsage: 1
  m_RayTracingMode: 2
  m_RayTraceProcedural: 0
  m_RenderingLayerMask: 1
  m_RendererPriority: 0
  m_Materials:
  - {fileID: 2100000, guid: 7fe2155bc8357bf47b57c7e42d6605be, type: 2}
  m_StaticBatchInfo:
    firstSubMesh: 0
    subMeshCount: 0
  m_StaticBatchRoot: {fileID: 0}
  m_ProbeAnchor: {fileID: 0}
  m_LightProbeVolumeOverride: {fileID: 0}
  m_ScaleInLightmap: 1
  m_ReceiveGI: 1
  m_PreserveUVs: 0
  m_IgnoreNormalsForChartDetection: 0
  m_ImportantGI: 0
  m_StitchLightmapSeams: 1
  m_SelectedEditorRenderState: 2
  m_MinimumChartSize: 4
  m_AutoUVMaxDistance: 0.5
  m_AutoUVMaxAngle: 89
  m_LightmapParameters: {fileID: 0}
  m_SortingLayerID: 0
  m_SortingLayer: 0
  m_SortingOrder: 0
  m_AdditionalVertexStreams: {fileID: 0}
--- !u!33 &2524018859733068661
MeshFilter:
  m_ObjectHideFlags: 0
  m_CorrespondingSourceObject: {fileID: 0}
  m_PrefabInstance: {fileID: 0}
  m_PrefabAsset: {fileID: 0}
  m_GameObject: {fileID: 2524018859733068659}
  m_Mesh: {fileID: 0}
--- !u!64 &2524018859733068660
MeshCollider:
  m_ObjectHideFlags: 0
  m_CorrespondingSourceObject: {fileID: 0}
  m_PrefabInstance: {fileID: 0}
  m_PrefabAsset: {fileID: 0}
  m_GameObject: {fileID: 2524018859733068659}
  m_Material: {fileID: 0}
  m_IsTrigger: 0
  m_Enabled: 1
  serializedVersion: 4
  m_Convex: 1
  m_CookingOptions: 30
  m_Mesh: {fileID: 0}
--- !u!54 &5634302093653907014
Rigidbody:
  m_ObjectHideFlags: 0
  m_CorrespondingSourceObject: {fileID: 0}
  m_PrefabInstance: {fileID: 0}
  m_PrefabAsset: {fileID: 0}
  m_GameObject: {fileID: 2524018859733068659}
  serializedVersion: 2
  m_Mass: 1
  m_Drag: 0
  m_AngularDrag: 0.05
  m_UseGravity: 1
  m_IsKinematic: 0
  m_Interpolate: 0
  m_Constraints: 0
  m_CollisionDetection: 0
